MachineLearning - 3 Redes multicapa densas con Keras
…
Matriz de confusión

¿Qué podemos comentar de la matriz de confusión obtenida?

Visualizamos el análisis individual de la clasificación para las primeras muestras de test igual que hicimos con el ejemplo de iris. En primer lugar obtenemos los datos para la representación gráfica.

# Datos
datos_pred = genera_dat_indiv(prediccion, etiquetas, pr_test)
# datos de observaciones que no coinciden
datos_pred[(datos_pred$max>0) & (datos_pred$coincidencia == FALSE), c("sample", "class", "probability", "target")]

# A tibble: 665 × 4
   sample class probability target
    <int> <chr>       <dbl> <fct> 
 1      9 6           0.976 5     
 2     34 6           0.664 4     
 3     64 2           0.620 3     
 4     93 4           0.396 9     
 5    125 4           0.616 7     
 6    150 9           0.574 2     
 7    194 3           0.320 9     
 8    196 8           0.292 3     
 9    212 7           0.464 5     
10    234 7           0.553 8     
# ℹ 655 more rows
…
